\relax 
\citation{neuron}
\citation{cortex}
\citation{ImgProc}
\citation{fea}
\citation{neuron}
\citation{ImgProc}
\@writefile{toc}{\contentsline {section}{\numberline {1}Project Scope}{1}}
\@writefile{toc}{\contentsline {section}{\numberline {2}Prior Work}{1}}
\citation{glsl}
\citation{arcball}
\citation{ImgProc}
\citation{cymk}
\@writefile{toc}{\contentsline {section}{\numberline {3}Technologies Used}{2}}
\@writefile{toc}{\contentsline {section}{\numberline {4}Approaches Tried}{2}}
\@writefile{toc}{\contentsline {subsection}{\numberline {4.1}CYMK Shader}{2}}
\citation{triplanar}
\citation{conformal}
\citation{conformal}
\citation{glsl}
\citation{perlin}
\@writefile{toc}{\contentsline {subsection}{\numberline {4.2}Light Dot Shader}{3}}
\@writefile{toc}{\contentsline {subsection}{\numberline {4.3}Bumpmap Shader}{3}}
\citation{derivatives}
\@writefile{toc}{\contentsline {subsection}{\numberline {4.4}Contour Shader}{4}}
\@writefile{toc}{\contentsline {section}{\numberline {5}Remaining Work}{4}}
\bibstyle{plain}
\bibdata{report}
\bibcite{neuron}{1}
\@writefile{toc}{\contentsline {section}{\numberline {6}Figures}{5}}
\@writefile{lof}{\contentsline {figure}{\numberline {1}{\ignorespaces Two Layers, layer displacement indicates surface thickness\relax }}{5}}
\providecommand*\caption@xref[2]{\@setref\relax\@undefined{#1}}
\newlabel{fig:two_layer}{{1}{5}}
\@writefile{lof}{\contentsline {figure}{\numberline {2}{\ignorespaces Saturation set high or low to indicate statistical significance\relax }}{5}}
\newlabel{fig:binary}{{2}{5}}
\@writefile{lof}{\contentsline {figure}{\numberline {3}{\ignorespaces CYMK Shader\relax }}{5}}
\newlabel{fig:cymk}{{3}{5}}
\@writefile{lof}{\contentsline {figure}{\numberline {4}{\ignorespaces Light Dot Shader\relax }}{5}}
\newlabel{fig:light}{{4}{5}}
\@writefile{lof}{\contentsline {figure}{\numberline {5}{\ignorespaces Bumpmap Shader\relax }}{5}}
\newlabel{fig:bump}{{5}{5}}
\@writefile{lof}{\contentsline {figure}{\numberline {6}{\ignorespaces Contour Shader\relax }}{5}}
\newlabel{fig:contour}{{6}{5}}
\bibcite{cymk}{2}
\bibcite{triplanar}{3}
\bibcite{ImgProc}{4}
\bibcite{arcball}{5}
\bibcite{fea}{6}
\bibcite{conformal}{7}
\bibcite{perlin}{8}
\bibcite{derivatives}{9}
\bibcite{glsl}{10}
\bibcite{cortex}{11}
