This is BibTeX, Version 0.99d (TeX Live 2012/Debian)
Capacity: max_strings=35307, hash_size=35307, hash_prime=30011
The top-level auxiliary file: report.aux
The style file: plain.bst
Database file #1: report.bib
You've used 11 entries,
            2118 wiz_defined-function locations,
            566 strings with 5210 characters,
and the built_in function-call counts, 3241 in all, are:
= -- 317
> -- 131
< -- 3
+ -- 52
- -- 41
* -- 204
:= -- 556
add.period$ -- 36
call.type$ -- 11
change.case$ -- 49
chr.to.int$ -- 0
cite$ -- 11
duplicate$ -- 140
empty$ -- 277
format.name$ -- 41
if$ -- 682
int.to.chr$ -- 0
int.to.str$ -- 11
missing$ -- 15
newline$ -- 58
num.names$ -- 24
pop$ -- 68
preamble$ -- 1
purify$ -- 42
quote$ -- 0
skip$ -- 82
stack$ -- 0
substring$ -- 162
swap$ -- 22
text.length$ -- 3
text.prefix$ -- 0
top$ -- 0
type$ -- 34
warning$ -- 0
while$ -- 32
width$ -- 13
write$ -- 123
