[
  {
    "click_position": [
      -11.764705882352943,
      -29.542483660130717,
      -12.810457516339868
    ],
    "nearestIndex": 18431,
    "value": 0.5663863262828951,
    "correct_value": {
      "index": 100658,
      "pos": [
        -10.5801,
        4.49368,
        20.4261
      ]
    },
    "test": "Click the point on the object with the highest Y Axis measurement",
    "program": "cymk",
    "model": 2,
    "dataI": 2,
    "dataII": 1
  },
  {
    "click_position": [
      0.2614379084967311,
      -23.26797385620915,
      -18.562091503267975
    ],
    "nearestIndex": 3440,
    "value": 0.903644579480279,
    "correct_value": {
      "index": 67525,
      "pos": [
        9.34653,
        3.48129,
        5.40373
      ]
    },
    "test": "Click the point on the object with the highest X Axis measurement",
    "program": "cymk",
    "model": 2,
    "dataI": 2,
    "dataII": 3
  },
  {
    "click_position": [
      -10.718954248366012,
      -10.19607843137255,
      10.71895424836602
    ],
    "nearestIndex": 86687,
    "value": 0.17523659220404716,
    "correct_value": {
      "index": 65915,
      "pos": [
        -2.58742,
        6.77254,
        4.66316
      ]
    },
    "test": "Click the point with the faintest visible circle (circles drawn using the Y axis measurement)",
    "program": "cymk",
    "model": 2,
    "dataI": 5,
    "dataII": 4
  },
  {
    "click_position": [
      0.7843137254901933,
      -11.241830065359474,
      -15.424836601307186
    ],
    "nearestIndex": 10344,
    "value": 0.14782951340001113,
    "correct_value": {
      "index": 89824,
      "pos": [
        16.0019,
        -8.48613,
        12.4156
      ]
    },
    "test": "Click the point with the smallest visible circle (circles drawn using the Y axis measurement)",
    "program": "cymk",
    "model": 2,
    "dataI": 6,
    "dataII": 1
  },
  {
    "click_position": [
      5.490196078431368,
      -34.77124183006536,
      -4.444444444444444
    ],
    "nearestIndex": 39241,
    "value": 0.5652173913043478,
    "correct_value": {
      "index": 17,
      "pos": [
        3.72327,
        -32.8425,
        -19.8823
      ]
    },
    "test": "Click the point with the faintest visible circle (circles drawn using the X axis value)",
    "program": "cymk",
    "model": 2,
    "dataI": 3,
    "dataII": 5
  },
  {
    "click_position": [
      -18.039215686274513,
      -19.6078431372549,
      -17.516339869281044
    ],
    "nearestIndex": 5793,
    "value": 0.75,
    "correct_value": {
      "index": 0,
      "pos": [
        -2.61301,
        -33.5378,
        -19.9079
      ]
    },
    "test": "Click the point with the smallest visible circle (circles drawn using the X axis value)",
    "program": "cymk",
    "model": 2,
    "dataI": 1,
    "dataII": 6
  },
  {
    "value": 0,
    "test": "How clear do you find this visualization?",
    "program": "cymk",
    "model": 2,
    "dataI": 2,
    "dataII": 3
  },
  {
    "value": 0,
    "test": "How attractive do you find this visualization?",
    "program": "cymk",
    "model": 2,
    "dataI": 4,
    "dataII": 1
  },
  {
    "click_position": [
      -1.307189542483663,
      -4.967320261437906,
      62.48366013071896
    ],
    "nearestIndex": 5811,
    "value": 0.5947281922765306,
    "correct_value": {
      "index": 5211,
      "pos": [
        -1.18896,
        -1.91686,
        65.3553
      ]
    },
    "test": "Click the point on the object with the highest Y Axis measurement",
    "program": "bumpmap",
    "model": 1,
    "dataI": 4,
    "dataII": 3
  },
  {
    "click_position": [
      21.699346405228755,
      -10.19607843137255,
      41.568627450980394
    ],
    "nearestIndex": 10260,
    "value": 0.5497164041217054,
    "correct_value": {
      "index": 5211,
      "pos": [
        -1.18896,
        -1.91686,
        65.3553
      ]
    },
    "test": "Click the point on the object with the highest X Axis measurement",
    "program": "bumpmap",
    "model": 1,
    "dataI": 3,
    "dataII": 4
  },
  {
    "click_position": [
      -12.287581699346406,
      26.928104575163392,
      -43.13725490196078
    ],
    "nearestIndex": 46409,
    "value": 0.05151292160172909,
    "correct_value": {
      "index": 5211,
      "pos": [
        -1.18896,
        -1.91686,
        65.3553
      ]
    },
    "test": "Click the point with the faintest visible circle (circles drawn using the Y axis measurement)",
    "program": "bumpmap",
    "model": 1,
    "dataI": 5,
    "dataII": 4
  },
  {
    "click_position": [
      16.47058823529412,
      5.490196078431368,
      52.54901960784314
    ],
    "nearestIndex": 8111,
    "value": 0.12918730685230484,
    "correct_value": {
      "index": 33196,
      "pos": [
        11.6538,
        19.2382,
        -23.2045
      ]
    },
    "test": "Click the point with the smallest visible circle (circles drawn using the Y axis measurement)",
    "program": "bumpmap",
    "model": 1,
    "dataI": 6,
    "dataII": 1
  },
  {
    "click_position": [
      4.444444444444444,
      6.01307189542483,
      66.66666666666667
    ],
    "nearestIndex": 4986,
    "value": 1,
    "correct_value": {
      "index": 41,
      "pos": [
        7.94641,
        -18.891,
        90.8616
      ]
    },
    "test": "Click the point with the faintest visible circle (circles drawn using the X axis value)",
    "program": "bumpmap",
    "model": 1,
    "dataI": 4,
    "dataII": 5
  },
  {
    "click_position": [
      22.74509803921568,
      -8.104575163398694,
      15.947712418300657
    ],
    "nearestIndex": 16924,
    "value": 0.42857142857142854,
    "correct_value": {
      "index": 0,
      "pos": [
        13.2538,
        -20.3888,
        90.8646
      ]
    },
    "test": "Click the point with the smallest visible circle (circles drawn using the X axis value)",
    "program": "bumpmap",
    "model": 1,
    "dataI": 1,
    "dataII": 6
  },
  {
    "value": 2,
    "test": "How clear do you find this visualization?",
    "program": "bumpmap",
    "model": 1,
    "dataI": 1,
    "dataII": 3
  },
  {
    "value": 3,
    "test": "How attractive do you find this visualization?",
    "program": "bumpmap",
    "model": 1,
    "dataI": 3,
    "dataII": 2
  },
  {
    "click_position": [
      -8.627450980392156,
      38.431372549019606,
      21.699346405228755
    ],
    "nearestIndex": 102684,
    "value": 0.6937875745900386,
    "correct_value": {
      "index": 89824,
      "pos": [
        16.0019,
        -8.48613,
        12.4156
      ]
    },
    "test": "Click the point on the object with the highest Y Axis measurement",
    "program": "contours",
    "model": 2,
    "dataI": 1,
    "dataII": 2
  },
  {
    "click_position": [
      2.352941176470595,
      -7.581699346405232,
      -14.901960784313724
    ],
    "nearestIndex": 12699,
    "value": 0.9058177865771159,
    "correct_value": {
      "index": 67525,
      "pos": [
        9.34653,
        3.48129,
        5.40373
      ]
    },
    "test": "Click the point on the object with the highest X Axis measurement",
    "program": "contours",
    "model": 2,
    "dataI": 1,
    "dataII": 3
  },
  {
    "click_position": [
      -4.444444444444444,
      24.836601307189543,
      14.901960784313733
    ],
    "nearestIndex": 94222,
    "value": 0.9352981996076579,
    "correct_value": {
      "index": 67525,
      "pos": [
        9.34653,
        3.48129,
        5.40373
      ]
    },
    "test": "Click the point with the faintest visible circle (circles drawn using the Y axis measurement)",
    "program": "contours",
    "model": 2,
    "dataI": 5,
    "dataII": 3
  },
  {
    "click_position": [
      -4.444444444444444,
      -33.20261437908497,
      -20.13071895424837
    ],
    "nearestIndex": 7,
    "value": 0.5966480766349897,
    "correct_value": {
      "index": 100658,
      "pos": [
        -10.5801,
        4.49368,
        20.4261
      ]
    },
    "test": "Click the point with the smallest visible circle (circles drawn using the Y axis measurement)",
    "program": "contours",
    "model": 2,
    "dataI": 6,
    "dataII": 2
  },
  {
    "click_position": [
      11.241830065359481,
      12.287581699346406,
      -13.8562091503268
    ],
    "nearestIndex": 16160,
    "value": 0.21739130434782614,
    "correct_value": {
      "index": 17,
      "pos": [
        3.72327,
        -32.8425,
        -19.8823
      ]
    },
    "test": "Click the point with the faintest visible circle (circles drawn using the X axis value)",
    "program": "contours",
    "model": 2,
    "dataI": 4,
    "dataII": 5
  },
  {
    "click_position": [
      -4.967320261437906,
      -32.15686274509804,
      -20.65359477124183
    ],
    "nearestIndex": 117,
    "value": 0.9230769230769231,
    "correct_value": {
      "index": 0,
      "pos": [
        -2.61301,
        -33.5378,
        -19.9079
      ]
    },
    "test": "Click the point with the smallest visible circle (circles drawn using the X axis value)",
    "program": "contours",
    "model": 2,
    "dataI": 4,
    "dataII": 6
  },
  {
    "value": 3,
    "test": "How clear do you find this visualization?",
    "program": "contours",
    "model": 2,
    "dataI": 1,
    "dataII": 3
  },
  {
    "value": 3,
    "test": "How attractive do you find this visualization?",
    "program": "contours",
    "model": 2,
    "dataI": 4,
    "dataII": 2
  },
  {
    "click_position": [
      -14.901960784313724,
      11.764705882352943,
      24.836601307189543
    ],
    "nearestIndex": 105056,
    "value": 0.577832370032182,
    "correct_value": {
      "index": 100658,
      "pos": [
        -10.5801,
        4.49368,
        20.4261
      ]
    },
    "test": "Click the point on the object with the highest Y Axis measurement",
    "program": "luminescent texture",
    "model": 2,
    "dataI": 2,
    "dataII": 3
  },
  {
    "click_position": [
      -6.013071895424837,
      -21.176470588235293,
      9.150326797385618
    ],
    "nearestIndex": 80491,
    "value": 0.9060172764967053,
    "correct_value": {
      "index": 67525,
      "pos": [
        9.34653,
        3.48129,
        5.40373
      ]
    },
    "test": "Click the point on the object with the highest X Axis measurement",
    "program": "luminescent texture",
    "model": 2,
    "dataI": 4,
    "dataII": 3
  },
  {
    "click_position": [
      -3.3986928104575193,
      24.31372549019608,
      17.516339869281044
    ],
    "nearestIndex": 97523,
    "value": 0.21299374343768673,
    "correct_value": {
      "index": 89824,
      "pos": [
        16.0019,
        -8.48613,
        12.4156
      ]
    },
    "test": "Click the point with the faintest visible circle (circles drawn using the Y axis measurement)",
    "program": "luminescent texture",
    "model": 2,
    "dataI": 5,
    "dataII": 1
  },
  {
    "click_position": [
      4.444444444444444,
      10.71895424836602,
      -1.8300653594771252
    ],
    "nearestIndex": 47316,
    "value": 0.9080431110971182,
    "correct_value": {
      "index": 67525,
      "pos": [
        9.34653,
        3.48129,
        5.40373
      ]
    },
    "test": "Click the point with the smallest visible circle (circles drawn using the Y axis measurement)",
    "program": "luminescent texture",
    "model": 2,
    "dataI": 6,
    "dataII": 3
  },
  {
    "click_position": [
      -2.8758169934640496,
      22.222222222222218,
      3.3986928104575193
    ],
    "nearestIndex": 62608,
    "value": 1,
    "correct_value": {
      "index": 17,
      "pos": [
        3.72327,
        -32.8425,
        -19.8823
      ]
    },
    "test": "Click the point with the faintest visible circle (circles drawn using the X axis value)",
    "program": "luminescent texture",
    "model": 2,
    "dataI": 3,
    "dataII": 5
  },
  {
    "click_position": [
      -21.699346405228755,
      -23.79084967320261,
      4.967320261437906
    ],
    "nearestIndex": 65171,
    "value": 1,
    "correct_value": {
      "index": 0,
      "pos": [
        -2.61301,
        -33.5378,
        -19.9079
      ]
    },
    "test": "Click the point with the smallest visible circle (circles drawn using the X axis value)",
    "program": "luminescent texture",
    "model": 2,
    "dataI": 1,
    "dataII": 6
  },
  {
    "value": 1,
    "test": "How clear do you find this visualization?",
    "program": "luminescent texture",
    "model": 2,
    "dataI": 3,
    "dataII": 2
  },
  {
    "value": 1,
    "test": "How attractive do you find this visualization?",
    "program": "luminescent texture",
    "model": 2,
    "dataI": 2,
    "dataII": 3
  },
  {
    "order": "cymk[]=1&contours[]=1&lightspots[]=1&bumpmap[]=1",
    "test": "Click and drag to order these images by how you liked each visualization",
    "program": "luminescent texture",
    "model": 2,
    "dataI": 1,
    "dataII": 2
  },
  {
    "value": "I was unclear what you meant by circles. I think the survey needs more explanation.",
    "test": "Do you have any comments on the visualizations?",
    "program": "luminescent texture",
    "model": 2,
    "dataI": 2,
    "dataII": 3
  }
]