[
  {
    "click_position": [
      23.267973856209156,
      -14.379084967320262,
      -38.431372549019606
    ],
    "nearestIndex": 43822,
    "value": 0.5241116794021086,
    "correct_value": {
      "index": 47466,
      "pos": [
        14.4916,
        -10.4303,
        -44.3502
      ]
    },
    "test": "Click the point on the object with the highest Y Axis measurement",
    "program": "bumpmap",
    "model": 1,
    "dataI": 2,
    "dataII": 3
  },
  {
    "click_position": [
      -14.901960784313724,
      -16.99346405228758,
      15.424836601307195
    ],
    "nearestIndex": 16838,
    "value": 0.5069684059230819,
    "correct_value": {
      "index": 47466,
      "pos": [
        14.4916,
        -10.4303,
        -44.3502
      ]
    },
    "test": "Click the point on the object with the highest X Axis measurement",
    "program": "bumpmap",
    "model": 1,
    "dataI": 3,
    "dataII": 2
  },
  {
    "click_position": [
      13.856209150326793,
      -18.039215686274513,
      -39.47712418300654
    ],
    "nearestIndex": 43767,
    "value": 0.22924072675112198,
    "correct_value": {
      "index": 5211,
      "pos": [
        -1.18896,
        -1.91686,
        65.3553
      ]
    },
    "test": "Click the point with the faintest visible circle (circles drawn using the Y axis measurement)",
    "program": "bumpmap",
    "model": 1,
    "dataI": 5,
    "dataII": 4
  },
  {
    "click_position": [
      -44.70588235294118,
      2.352941176470595,
      -40
    ],
    "nearestIndex": 44223,
    "value": 0.0636834881520366,
    "correct_value": {
      "index": 5211,
      "pos": [
        -1.18896,
        -1.91686,
        65.3553
      ]
    },
    "test": "Click the point with the smallest visible circle (circles drawn using the Y axis measurement)",
    "program": "bumpmap",
    "model": 1,
    "dataI": 6,
    "dataII": 4
  },
  {
    "click_position": [
      30.06535947712418,
      -9.150326797385619,
      -25.882352941176467
    ],
    "nearestIndex": 34465,
    "value": 0.36879870799728004,
    "correct_value": {
      "index": 10406,
      "pos": [
        0.822509,
        6.08594,
        41.3594
      ]
    },
    "test": "Click the point with the faintest visible circle (circles drawn using the X axis value)",
    "program": "bumpmap",
    "model": 1,
    "dataI": 2,
    "dataII": 5
  },
  {
    "click_position": [
      -2.3529411764705874,
      -14.379084967320262,
      -9.673202614379088
    ],
    "nearestIndex": 26013,
    "value": 0.5026999182076917,
    "correct_value": {
      "index": 47466,
      "pos": [
        14.4916,
        -10.4303,
        -44.3502
      ]
    },
    "test": "Click the point with the smallest visible circle (circles drawn using the X axis value)",
    "program": "bumpmap",
    "model": 1,
    "dataI": 1,
    "dataII": 6
  },
  {
    "value": 2,
    "test": "How clear do you find this visualization?",
    "program": "bumpmap",
    "model": 1,
    "dataI": 2,
    "dataII": 4
  },
  {
    "value": 1,
    "test": "How attractive do you find this visualization?",
    "program": "bumpmap",
    "model": 1,
    "dataI": 2,
    "dataII": 4
  },
  {
    "click_position": [
      16.47058823529412,
      5.490196078431368,
      48.88888888888889
    ],
    "nearestIndex": 8751,
    "value": 0.5253750503014808,
    "correct_value": {
      "index": 47466,
      "pos": [
        14.4916,
        -10.4303,
        -44.3502
      ]
    },
    "test": "Click the point on the object with the highest Y Axis measurement",
    "program": "contours",
    "model": 1,
    "dataI": 2,
    "dataII": 4
  },
  {
    "click_position": [
      -40.52287581699347,
      15.947712418300657,
      -46.27450980392157
    ],
    "nearestIndex": 48570,
    "value": 0.3676340166839904,
    "correct_value": {
      "index": 10406,
      "pos": [
        0.822509,
        6.08594,
        41.3594
      ]
    },
    "test": "Click the point on the object with the highest X Axis measurement",
    "program": "contours",
    "model": 1,
    "dataI": 4,
    "dataII": 3
  },
  {
    "click_position": [
      20.65359477124183,
      -12.287581699346406,
      45.22875816993464
    ],
    "nearestIndex": 9580,
    "value": 0.30372430953319923,
    "correct_value": {
      "index": 10406,
      "pos": [
        0.822509,
        6.08594,
        41.3594
      ]
    },
    "test": "Click the point with the faintest visible circle (circles drawn using the Y axis measurement)",
    "program": "contours",
    "model": 1,
    "dataI": 5,
    "dataII": 3
  },
  {
    "click_position": [
      -37.38562091503268,
      19.084967320261445,
      -25.359477124183005
    ],
    "nearestIndex": 35030,
    "value": 0.23568967571632285,
    "correct_value": {
      "index": 33196,
      "pos": [
        11.6538,
        19.2382,
        -23.2045
      ]
    },
    "test": "Click the point with the smallest visible circle (circles drawn using the Y axis measurement)",
    "program": "contours",
    "model": 1,
    "dataI": 6,
    "dataII": 1
  },
  {
    "click_position": [
      19.607843137254907,
      -17.516339869281044,
      -37.908496732026144
    ],
    "nearestIndex": 42778,
    "value": 0.8260869565217389,
    "correct_value": {
      "index": 41,
      "pos": [
        7.94641,
        -18.891,
        90.8616
      ]
    },
    "test": "Click the point with the faintest visible circle (circles drawn using the X axis value)",
    "program": "contours",
    "model": 1,
    "dataI": 1,
    "dataII": 5
  },
  {
    "click_position": [
      -6.5359477124183,
      14.901960784313733,
      -47.32026143790849
    ],
    "nearestIndex": 48552,
    "value": 0.4234215599676999,
    "correct_value": {
      "index": 10406,
      "pos": [
        0.822509,
        6.08594,
        41.3594
      ]
    },
    "test": "Click the point with the smallest visible circle (circles drawn using the X axis value)",
    "program": "contours",
    "model": 1,
    "dataI": 2,
    "dataII": 6
  },
  {
    "value": 2,
    "test": "How clear do you find this visualization?",
    "program": "contours",
    "model": 1,
    "dataI": 3,
    "dataII": 1
  },
  {
    "value": 1,
    "test": "How attractive do you find this visualization?",
    "program": "contours",
    "model": 1,
    "dataI": 2,
    "dataII": 4
  },
  {
    "click_position": [
      22.74509803921568,
      -8.104575163398694,
      15.947712418300657
    ],
    "nearestIndex": 16924,
    "value": 0.5244793810669645,
    "correct_value": {
      "index": 47466,
      "pos": [
        14.4916,
        -10.4303,
        -44.3502
      ]
    },
    "test": "Click the point on the object with the highest Y Axis measurement",
    "program": "luminescent texture",
    "model": 1,
    "dataI": 2,
    "dataII": 3
  },
  {
    "click_position": [
      -18.562091503267975,
      -9.150326797385619,
      -32.67973856209151
    ],
    "nearestIndex": 38567,
    "value": 0.4519908710737158,
    "correct_value": {
      "index": 10406,
      "pos": [
        0.822509,
        6.08594,
        41.3594
      ]
    },
    "test": "Click the point on the object with the highest X Axis measurement",
    "program": "luminescent texture",
    "model": 1,
    "dataI": 4,
    "dataII": 3
  },
  {
    "click_position": [
      -43.66013071895425,
      -0.2614379084967311,
      -38.431372549019606
    ],
    "nearestIndex": 43147,
    "value": 0.18532623401671272,
    "correct_value": {
      "index": 33196,
      "pos": [
        11.6538,
        19.2382,
        -23.2045
      ]
    },
    "test": "Click the point with the faintest visible circle (circles drawn using the Y axis measurement)",
    "program": "luminescent texture",
    "model": 1,
    "dataI": 5,
    "dataII": 1
  },
  {
    "click_position": [
      12.287581699346406,
      -18.039215686274513,
      41.04575163398693
    ],
    "nearestIndex": 10176,
    "value": 0.46387035207395294,
    "correct_value": {
      "index": 47466,
      "pos": [
        14.4916,
        -10.4303,
        -44.3502
      ]
    },
    "test": "Click the point with the smallest visible circle (circles drawn using the Y axis measurement)",
    "program": "luminescent texture",
    "model": 1,
    "dataI": 6,
    "dataII": 2
  },
  {
    "click_position": [
      -19.084967320261438,
      11.764705882352944,
      -12.287581699346406
    ],
    "nearestIndex": 27716,
    "value": 0.534236897153685,
    "correct_value": {
      "index": 10406,
      "pos": [
        0.822509,
        6.08594,
        41.3594
      ]
    },
    "test": "Click the point with the faintest visible circle (circles drawn using the X axis value)",
    "program": "luminescent texture",
    "model": 1,
    "dataI": 1,
    "dataII": 5
  },
  {
    "click_position": [
      -19.6078431372549,
      11.764705882352944,
      -12.810457516339868
    ],
    "nearestIndex": 27704,
    "value": 0.5660268584441945,
    "correct_value": {
      "index": 10406,
      "pos": [
        0.822509,
        6.08594,
        41.3594
      ]
    },
    "test": "Click the point with the smallest visible circle (circles drawn using the X axis value)",
    "program": "luminescent texture",
    "model": 1,
    "dataI": 4,
    "dataII": 6
  },
  {
    "value": 1,
    "test": "How clear do you find this visualization?",
    "program": "luminescent texture",
    "model": 1,
    "dataI": 1,
    "dataII": 4
  },
  {
    "value": 1,
    "test": "How attractive do you find this visualization?",
    "program": "luminescent texture",
    "model": 1,
    "dataI": 1,
    "dataII": 3
  },
  {
    "click_position": [
      -16.47058823529412,
      11.764705882352944,
      -18.039215686274513
    ],
    "nearestIndex": 4754,
    "value": 0.3822049630893569,
    "correct_value": {
      "index": 65915,
      "pos": [
        -2.58742,
        6.77254,
        4.66316
      ]
    },
    "test": "Click the point on the object with the highest Y Axis measurement",
    "program": "cymk",
    "model": 2,
    "dataI": 4,
    "dataII": 1
  },
  {
    "click_position": [
      -15.947712418300657,
      -3.9215686274509816,
      -13.33333333333333
    ],
    "nearestIndex": 17204,
    "value": 0.9166414152410743,
    "correct_value": {
      "index": 67525,
      "pos": [
        9.34653,
        3.48129,
        5.40373
      ]
    },
    "test": "Click the point on the object with the highest X Axis measurement",
    "program": "cymk",
    "model": 2,
    "dataI": 2,
    "dataII": 3
  },
  {
    "click_position": [
      24.31372549019608,
      -19.084967320261438,
      8.104575163398694
    ],
    "nearestIndex": 75816,
    "value": 0.10141468799560205,
    "correct_value": {
      "index": 65915,
      "pos": [
        -2.58742,
        6.77254,
        4.66316
      ]
    },
    "test": "Click the point with the faintest visible circle (circles drawn using the Y axis measurement)",
    "program": "cymk",
    "model": 2,
    "dataI": 5,
    "dataII": 4
  },
  {
    "click_position": [
      -17.516339869281044,
      -0.7843137254901933,
      -4.967320261437906
    ],
    "nearestIndex": 37715,
    "value": 0.5313174058113361,
    "correct_value": {
      "index": 100658,
      "pos": [
        -10.5801,
        4.49368,
        20.4261
      ]
    },
    "test": "Click the point with the smallest visible circle (circles drawn using the Y axis measurement)",
    "program": "cymk",
    "model": 2,
    "dataI": 6,
    "dataII": 2
  },
  {
    "click_position": [
      11.764705882352944,
      12.810457516339868,
      -9.150326797385619
    ],
    "nearestIndex": 28981,
    "value": 0.9092734101640202,
    "correct_value": {
      "index": 67525,
      "pos": [
        9.34653,
        3.48129,
        5.40373
      ]
    },
    "test": "Click the point with the faintest visible circle (circles drawn using the X axis value)",
    "program": "cymk",
    "model": 2,
    "dataI": 1,
    "dataII": 5
  },
  {
    "click_position": [
      34.248366013071895,
      10.71895424836602,
      -3.3986928104575194
    ],
    "nearestIndex": 42753,
    "value": 0.5220775582142877,
    "correct_value": {
      "index": 100658,
      "pos": [
        -10.5801,
        4.49368,
        20.4261
      ]
    },
    "test": "Click the point with the smallest visible circle (circles drawn using the X axis value)",
    "program": "cymk",
    "model": 2,
    "dataI": 1,
    "dataII": 6
  },
  {
    "value": 2,
    "test": "How clear do you find this visualization?",
    "program": "cymk",
    "model": 2,
    "dataI": 3,
    "dataII": 2
  },
  {
    "value": 2,
    "test": "How attractive do you find this visualization?",
    "program": "cymk",
    "model": 2,
    "dataI": 3,
    "dataII": 1
  },
  {
    "order": "lightspots[]=1&contours[]=1&cymk[]=1&bumpmap[]=1",
    "test": "Click and drag to order these images by how you liked each visualization",
    "program": "cymk",
    "model": 2,
    "dataI": 1,
    "dataII": 4
  },
  {
    "value": "",
    "test": "Do you have any comments on the visualizations?",
    "program": "cymk",
    "model": 2,
    "dataI": 1,
    "dataII": 2
  }
]