[
  {
    "click_position": [
      -35.81699346405229,
      26.928104575163392,
      -33.72549019607843
    ],
    "nearestIndex": 40503,
    "value": 0.5431344070485993,
    "correct_value": {
      "index": 47466,
      "pos": [
        14.4916,
        -10.4303,
        -44.3502
      ]
    },
    "test": "Click the point on the object with the highest Y Axis measurement",
    "program": "bumpmap",
    "model": 1,
    "dataI": 2,
    "dataII": 3
  },
  {
    "click_position": [
      0.2614379084967311,
      -0.7843137254901933,
      66.66666666666667
    ],
    "nearestIndex": 4902,
    "value": 0.6026645519494699,
    "correct_value": {
      "index": 5211,
      "pos": [
        -1.18896,
        -1.91686,
        65.3553
      ]
    },
    "test": "Click the point on the object with the highest X Axis measurement",
    "program": "bumpmap",
    "model": 1,
    "dataI": 2,
    "dataII": 4
  },
  {
    "click_position": [
      -19.6078431372549,
      7.581699346405232,
      -59.346405228758165
    ],
    "nearestIndex": 53151,
    "value": 0.5369436352562238,
    "correct_value": {
      "index": 10406,
      "pos": [
        0.822509,
        6.08594,
        41.3594
      ]
    },
    "test": "Click the point with the faintest visible circle (circles drawn using the Y axis measurement)",
    "program": "bumpmap",
    "model": 1,
    "dataI": 5,
    "dataII": 3
  },
  {
    "click_position": [
      -5.490196078431375,
      -7.581699346405232,
      -23.79084967320261
    ],
    "nearestIndex": 32609,
    "value": 0.4518610683642544,
    "correct_value": {
      "index": 10406,
      "pos": [
        0.822509,
        6.08594,
        41.3594
      ]
    },
    "test": "Click the point with the smallest visible circle (circles drawn using the Y axis measurement)",
    "program": "bumpmap",
    "model": 1,
    "dataI": 6,
    "dataII": 3
  },
  {
    "click_position": [
      12.287581699346406,
      19.084967320261445,
      -23.26797385620915
    ],
    "nearestIndex": 33196,
    "value": 0.50314041860609,
    "correct_value": {
      "index": 5211,
      "pos": [
        -1.18896,
        -1.91686,
        65.3553
      ]
    },
    "test": "Click the point with the faintest visible circle (circles drawn using the X axis value)",
    "program": "bumpmap",
    "model": 1,
    "dataI": 2,
    "dataII": 5
  },
  {
    "click_position": [
      10.196078431372543,
      -17.516339869281044,
      -36.33986928104576
    ],
    "nearestIndex": 41792,
    "value": 0.19949337054443098,
    "correct_value": {
      "index": 33196,
      "pos": [
        11.6538,
        19.2382,
        -23.2045
      ]
    },
    "test": "Click the point with the smallest visible circle (circles drawn using the X axis value)",
    "program": "bumpmap",
    "model": 1,
    "dataI": 3,
    "dataII": 6
  },
  {
    "value": 3,
    "test": "How clear do you find this visualization?",
    "program": "bumpmap",
    "model": 1,
    "dataI": 4,
    "dataII": 1
  },
  {
    "value": 1,
    "test": "How attractive do you find this visualization?",
    "program": "bumpmap",
    "model": 1,
    "dataI": 4,
    "dataII": 3
  },
  {
    "click_position": [
      -0.2614379084967311,
      5.490196078431368,
      38.95424836601307
    ],
    "nearestIndex": 11058,
    "value": 0.929020356688946,
    "correct_value": {
      "index": 10406,
      "pos": [
        0.822509,
        6.08594,
        41.3594
      ]
    },
    "test": "Click the point on the object with the highest Y Axis measurement",
    "program": "luminescent texture",
    "model": 1,
    "dataI": 3,
    "dataII": 1
  },
  {
    "click_position": [
      16.99346405228758,
      -19.084967320261438,
      66.66666666666667
    ],
    "nearestIndex": 4737,
    "value": 0.1889663053384391,
    "correct_value": {
      "index": 33196,
      "pos": [
        11.6538,
        19.2382,
        -23.2045
      ]
    },
    "test": "Click the point on the object with the highest X Axis measurement",
    "program": "luminescent texture",
    "model": 1,
    "dataI": 3,
    "dataII": 1
  },
  {
    "click_position": [
      -32.67973856209151,
      24.836601307189543,
      -51.50326797385621
    ],
    "nearestIndex": 50168,
    "value": 0.5481071133544059,
    "correct_value": {
      "index": 47466,
      "pos": [
        14.4916,
        -10.4303,
        -44.3502
      ]
    },
    "test": "Click the point with the faintest visible circle (circles drawn using the Y axis measurement)",
    "program": "luminescent texture",
    "model": 1,
    "dataI": 5,
    "dataII": 2
  },
  {
    "click_position": [
      16.99346405228758,
      -18.562091503267975,
      54.64052287581699
    ],
    "nearestIndex": 7233,
    "value": 0.5462567025912619,
    "correct_value": {
      "index": 10406,
      "pos": [
        0.822509,
        6.08594,
        41.3594
      ]
    },
    "test": "Click the point with the smallest visible circle (circles drawn using the Y axis measurement)",
    "program": "luminescent texture",
    "model": 1,
    "dataI": 6,
    "dataII": 3
  },
  {
    "click_position": [
      -1.8300653594771252,
      11.764705882352944,
      4.444444444444444
    ],
    "nearestIndex": 21283,
    "value": 0.47652148281837414,
    "correct_value": {
      "index": 33196,
      "pos": [
        11.6538,
        19.2382,
        -23.2045
      ]
    },
    "test": "Click the point with the faintest visible circle (circles drawn using the X axis value)",
    "program": "luminescent texture",
    "model": 1,
    "dataI": 3,
    "dataII": 5
  },
  {
    "click_position": [
      -0.2614379084967311,
      -6.5359477124183,
      -26.9281045751634
    ],
    "nearestIndex": 35527,
    "value": 0.46987779139630625,
    "correct_value": {
      "index": 10406,
      "pos": [
        0.822509,
        6.08594,
        41.3594
      ]
    },
    "test": "Click the point with the smallest visible circle (circles drawn using the X axis value)",
    "program": "luminescent texture",
    "model": 1,
    "dataI": 1,
    "dataII": 6
  },
  {
    "value": 0,
    "test": "How clear do you find this visualization?",
    "program": "luminescent texture",
    "model": 1,
    "dataI": 2,
    "dataII": 3
  },
  {
    "value": 3,
    "test": "How attractive do you find this visualization?",
    "program": "luminescent texture",
    "model": 1,
    "dataI": 1,
    "dataII": 2
  },
  {
    "click_position": [
      10.71895424836602,
      19.084967320261445,
      -21.699346405228756
    ],
    "nearestIndex": 32317,
    "value": 0.5135032743511146,
    "correct_value": {
      "index": 5211,
      "pos": [
        -1.18896,
        -1.91686,
        65.3553
      ]
    },
    "test": "Click the point on the object with the highest Y Axis measurement",
    "program": "cymk",
    "model": 1,
    "dataI": 4,
    "dataII": 1
  },
  {
    "click_position": [
      -0.7843137254901933,
      -8.104575163398694,
      58.8235294117647
    ],
    "nearestIndex": 6424,
    "value": 0.5625491658804972,
    "correct_value": {
      "index": 5211,
      "pos": [
        -1.18896,
        -1.91686,
        65.3553
      ]
    },
    "test": "Click the point on the object with the highest X Axis measurement",
    "program": "cymk",
    "model": 1,
    "dataI": 3,
    "dataII": 4
  },
  {
    "click_position": [
      18.039215686274506,
      -18.562091503267975,
      -37.38562091503268
    ],
    "nearestIndex": 42783,
    "value": 0.31054701869573714,
    "correct_value": {
      "index": 33196,
      "pos": [
        11.6538,
        19.2382,
        -23.2045
      ]
    },
    "test": "Click the point with the faintest visible circle (circles drawn using the Y axis measurement)",
    "program": "cymk",
    "model": 1,
    "dataI": 5,
    "dataII": 1
  },
  {
    "click_position": [
      -6.5359477124183,
      -5.490196078431375,
      26.928104575163392
    ],
    "nearestIndex": 13838,
    "value": 0.15780516286051835,
    "correct_value": {
      "index": 33196,
      "pos": [
        11.6538,
        19.2382,
        -23.2045
      ]
    },
    "test": "Click the point with the smallest visible circle (circles drawn using the Y axis measurement)",
    "program": "cymk",
    "model": 1,
    "dataI": 6,
    "dataII": 1
  },
  {
    "click_position": [
      32.156862745098046,
      2.352941176470595,
      -27.45098039215686
    ],
    "nearestIndex": 35840,
    "value": 0.1621016650371091,
    "correct_value": {
      "index": 33196,
      "pos": [
        11.6538,
        19.2382,
        -23.2045
      ]
    },
    "test": "Click the point with the faintest visible circle (circles drawn using the X axis value)",
    "program": "cymk",
    "model": 1,
    "dataI": 3,
    "dataII": 5
  },
  {
    "click_position": [
      22.74509803921568,
      -6.5359477124183,
      66.66666666666667
    ],
    "nearestIndex": 4862,
    "value": 1,
    "correct_value": {
      "index": 0,
      "pos": [
        13.2538,
        -20.3888,
        90.8646
      ]
    },
    "test": "Click the point with the smallest visible circle (circles drawn using the X axis value)",
    "program": "cymk",
    "model": 1,
    "dataI": 4,
    "dataII": 6
  },
  {
    "value": 2,
    "test": "How clear do you find this visualization?",
    "program": "cymk",
    "model": 1,
    "dataI": 3,
    "dataII": 1
  },
  {
    "value": 4,
    "test": "How attractive do you find this visualization?",
    "program": "cymk",
    "model": 1,
    "dataI": 3,
    "dataII": 2
  },
  {
    "click_position": [
      9.150326797385619,
      3.9215686274509816,
      7.05882352941177
    ],
    "nearestIndex": 71094,
    "value": 0.5900387975353254,
    "correct_value": {
      "index": 100658,
      "pos": [
        -10.5801,
        4.49368,
        20.4261
      ]
    },
    "test": "Click the point on the object with the highest Y Axis measurement",
    "program": "contours",
    "model": 2,
    "dataI": 2,
    "dataII": 3
  },
  {
    "click_position": [
      -6.013071895424837,
      9.67320261437908,
      -4.444444444444444
    ],
    "nearestIndex": 40409,
    "value": 0.5933339804437125,
    "correct_value": {
      "index": 65915,
      "pos": [
        -2.58742,
        6.77254,
        4.66316
      ]
    },
    "test": "Click the point on the object with the highest X Axis measurement",
    "program": "contours",
    "model": 2,
    "dataI": 1,
    "dataII": 4
  },
  {
    "click_position": [
      -3.9215686274509816,
      25.882352941176467,
      18.039215686274506
    ],
    "nearestIndex": 98516,
    "value": 0.27938837180986814,
    "correct_value": {
      "index": 65915,
      "pos": [
        -2.58742,
        6.77254,
        4.66316
      ]
    },
    "test": "Click the point with the faintest visible circle (circles drawn using the Y axis measurement)",
    "program": "contours",
    "model": 2,
    "dataI": 5,
    "dataII": 4
  },
  {
    "click_position": [
      15.424836601307195,
      -25.882352941176467,
      -19.6078431372549
    ],
    "nearestIndex": 2231,
    "value": 0.5255405322416034,
    "correct_value": {
      "index": 100658,
      "pos": [
        -10.5801,
        4.49368,
        20.4261
      ]
    },
    "test": "Click the point with the smallest visible circle (circles drawn using the Y axis measurement)",
    "program": "contours",
    "model": 2,
    "dataI": 6,
    "dataII": 2
  },
  {
    "click_position": [
      8.627450980392156,
      15.424836601307195,
      10.196078431372543
    ],
    "nearestIndex": 82408,
    "value": 0.14366431384807404,
    "correct_value": {
      "index": 65915,
      "pos": [
        -2.58742,
        6.77254,
        4.66316
      ]
    },
    "test": "Click the point with the faintest visible circle (circles drawn using the X axis value)",
    "program": "contours",
    "model": 2,
    "dataI": 3,
    "dataII": 5
  },
  {
    "click_position": [
      -1.307189542483663,
      -19.084967320261438,
      -16.47058823529412
    ],
    "nearestIndex": 7397,
    "value": 0.0858667430380183,
    "correct_value": {
      "index": 65915,
      "pos": [
        -2.58742,
        6.77254,
        4.66316
      ]
    },
    "test": "Click the point with the smallest visible circle (circles drawn using the X axis value)",
    "program": "contours",
    "model": 2,
    "dataI": 1,
    "dataII": 6
  },
  {
    "value": 0,
    "test": "How clear do you find this visualization?",
    "program": "contours",
    "model": 2,
    "dataI": 2,
    "dataII": 1
  },
  {
    "value": 1,
    "test": "How attractive do you find this visualization?",
    "program": "contours",
    "model": 2,
    "dataI": 2,
    "dataII": 4
  },
  {
    "order": "cymk[]=1&bumpmap[]=1&lightspots[]=1&contours[]=1",
    "test": "Click and drag to order these images by how you liked each visualization",
    "program": "contours",
    "model": 2,
    "dataI": 1,
    "dataII": 2
  },
  {
    "value": "",
    "test": "Do you have any comments on the visualizations?",
    "program": "contours",
    "model": 2,
    "dataI": 4,
    "dataII": 3
  }
]