[
  {
    "click_position": [
      -16.47058823529412,
      19.084967320261445,
      -20.65359477124183
    ],
    "nearestIndex": 1767,
    "value": 0.42407307880546125,
    "correct_value": {
      "index": 89824,
      "pos": [
        16.0019,
        -8.48613,
        12.4156
      ]
    },
    "test": "Click the point on the object with the highest Y Axis measurement",
    "program": "luminescent texture",
    "model": 2,
    "dataI": 1,
    "dataII": 3
  },
  {
    "click_position": [
      14.901960784313733,
      -28.496732026143793,
      -18.562091503267975
    ],
    "nearestIndex": 3059,
    "value": 0.704102496601402,
    "correct_value": {
      "index": 89824,
      "pos": [
        16.0019,
        -8.48613,
        12.4156
      ]
    },
    "test": "Click the point on the object with the highest X Axis measurement",
    "program": "luminescent texture",
    "model": 2,
    "dataI": 4,
    "dataII": 1
  },
  {
    "click_position": [
      4.444444444444444,
      -26.405228758169937,
      -20.13071895424837
    ],
    "nearestIndex": 1231,
    "value": 0.10450137397139188,
    "correct_value": {
      "index": 65915,
      "pos": [
        -2.58742,
        6.77254,
        4.66316
      ]
    },
    "test": "Click the point with the faintest visible circle (circles drawn using the Y axis measurement)",
    "program": "luminescent texture",
    "model": 2,
    "dataI": 5,
    "dataII": 4
  },
  {
    "click_position": [
      -6.013071895424837,
      10.71895424836602,
      -1.8300653594771252
    ],
    "nearestIndex": 47188,
    "value": 0.16907063140558498,
    "correct_value": {
      "index": 89824,
      "pos": [
        16.0019,
        -8.48613,
        12.4156
      ]
    },
    "test": "Click the point with the smallest visible circle (circles drawn using the Y axis measurement)",
    "program": "luminescent texture",
    "model": 2,
    "dataI": 6,
    "dataII": 1
  },
  {
    "click_position": [
      -9.673202614379088,
      -22.222222222222225,
      -18.039215686274513
    ],
    "nearestIndex": 4520,
    "value": 0.909063914567969,
    "correct_value": {
      "index": 67525,
      "pos": [
        9.34653,
        3.48129,
        5.40373
      ]
    },
    "test": "Click the point with the faintest visible circle (circles drawn using the X axis value)",
    "program": "luminescent texture",
    "model": 2,
    "dataI": 2,
    "dataII": 5
  },
  {
    "click_position": [
      18.039215686274506,
      -25.882352941176467,
      -12.810457516339868
    ],
    "nearestIndex": 16857,
    "value": 0.0805854737336991,
    "correct_value": {
      "index": 65915,
      "pos": [
        -2.58742,
        6.77254,
        4.66316
      ]
    },
    "test": "Click the point with the smallest visible circle (circles drawn using the X axis value)",
    "program": "luminescent texture",
    "model": 2,
    "dataI": 2,
    "dataII": 6
  },
  {
    "value": 2,
    "test": "How clear do you find this visualization?",
    "program": "luminescent texture",
    "model": 2,
    "dataI": 1,
    "dataII": 4
  },
  {
    "value": 1,
    "test": "How attractive do you find this visualization?",
    "program": "luminescent texture",
    "model": 2,
    "dataI": 2,
    "dataII": 3
  },
  {
    "click_position": [
      6.01307189542483,
      9.67320261437908,
      -3.9215686274509816
    ],
    "nearestIndex": 42695,
    "value": 0.5177018694793916,
    "correct_value": {
      "index": 65915,
      "pos": [
        -2.58742,
        6.77254,
        4.66316
      ]
    },
    "test": "Click the point on the object with the highest Y Axis measurement",
    "program": "cymk",
    "model": 2,
    "dataI": 4,
    "dataII": 3
  },
  {
    "click_position": [
      -11.241830065359474,
      12.287581699346406,
      4.444444444444444
    ],
    "nearestIndex": 66040,
    "value": 0.695880004584906,
    "correct_value": {
      "index": 65915,
      "pos": [
        -2.58742,
        6.77254,
        4.66316
      ]
    },
    "test": "Click the point on the object with the highest X Axis measurement",
    "program": "cymk",
    "model": 2,
    "dataI": 2,
    "dataII": 4
  },
  {
    "click_position": [
      10.196078431372543,
      -8.627450980392156,
      -15.424836601307186
    ],
    "nearestIndex": 12390,
    "value": 0.5145846876947108,
    "correct_value": {
      "index": 100658,
      "pos": [
        -10.5801,
        4.49368,
        20.4261
      ]
    },
    "test": "Click the point with the faintest visible circle (circles drawn using the Y axis measurement)",
    "program": "cymk",
    "model": 2,
    "dataI": 5,
    "dataII": 2
  },
  {
    "click_position": [
      -9.150326797385619,
      2.875816993464057,
      8.104575163398694
    ],
    "nearestIndex": 76246,
    "value": 0.9406637337014339,
    "correct_value": {
      "index": 67525,
      "pos": [
        9.34653,
        3.48129,
        5.40373
      ]
    },
    "test": "Click the point with the smallest visible circle (circles drawn using the Y axis measurement)",
    "program": "cymk",
    "model": 2,
    "dataI": 6,
    "dataII": 3
  },
  {
    "click_position": [
      14.901960784313733,
      -10.19607843137255,
      -15.424836601307186
    ],
    "nearestIndex": 11954,
    "value": 0.21872689087580427,
    "correct_value": {
      "index": 100658,
      "pos": [
        -10.5801,
        4.49368,
        20.4261
      ]
    },
    "test": "Click the point with the faintest visible circle (circles drawn using the X axis value)",
    "program": "cymk",
    "model": 2,
    "dataI": 3,
    "dataII": 5
  },
  {
    "click_position": [
      -9.673202614379088,
      -31.633986928104576,
      -13.33333333333333
    ],
    "nearestIndex": 16755,
    "value": 0.5604739677301743,
    "correct_value": {
      "index": 100658,
      "pos": [
        -10.5801,
        4.49368,
        20.4261
      ]
    },
    "test": "Click the point with the smallest visible circle (circles drawn using the X axis value)",
    "program": "cymk",
    "model": 2,
    "dataI": 4,
    "dataII": 6
  },
  {
    "value": 1,
    "test": "How clear do you find this visualization?",
    "program": "cymk",
    "model": 2,
    "dataI": 3,
    "dataII": 4
  },
  {
    "value": 2,
    "test": "How attractive do you find this visualization?",
    "program": "cymk",
    "model": 2,
    "dataI": 1,
    "dataII": 2
  },
  {
    "click_position": [
      -16.47058823529412,
      9.67320261437908,
      -15.424836601307186
    ],
    "nearestIndex": 10893,
    "value": 0.9535546786450333,
    "correct_value": {
      "index": 67525,
      "pos": [
        9.34653,
        3.48129,
        5.40373
      ]
    },
    "test": "Click the point on the object with the highest Y Axis measurement",
    "program": "contours",
    "model": 2,
    "dataI": 3,
    "dataII": 4
  },
  {
    "click_position": [
      -20.13071895424837,
      -19.084967320261438,
      -16.47058823529412
    ],
    "nearestIndex": 7446,
    "value": 0.33628817725439436,
    "correct_value": {
      "index": 65915,
      "pos": [
        -2.58742,
        6.77254,
        4.66316
      ]
    },
    "test": "Click the point on the object with the highest X Axis measurement",
    "program": "contours",
    "model": 2,
    "dataI": 2,
    "dataII": 4
  },
  {
    "click_position": [
      -4.444444444444444,
      -20.13071895424837,
      -16.99346405228758
    ],
    "nearestIndex": 7181,
    "value": 0.24289613027431542,
    "correct_value": {
      "index": 89824,
      "pos": [
        16.0019,
        -8.48613,
        12.4156
      ]
    },
    "test": "Click the point with the faintest visible circle (circles drawn using the Y axis measurement)",
    "program": "contours",
    "model": 2,
    "dataI": 5,
    "dataII": 1
  },
  {
    "click_position": [
      -2.8758169934640496,
      -14.379084967320262,
      10.71895424836602
    ],
    "nearestIndex": 84170,
    "value": 0.5110633772000414,
    "correct_value": {
      "index": 100658,
      "pos": [
        -10.5801,
        4.49368,
        20.4261
      ]
    },
    "test": "Click the point with the smallest visible circle (circles drawn using the Y axis measurement)",
    "program": "contours",
    "model": 2,
    "dataI": 6,
    "dataII": 2
  },
  {
    "click_position": [
      9.150326797385619,
      -32.67973856209151,
      -6.013071895424837
    ],
    "nearestIndex": 35291,
    "value": 0.20232341563502598,
    "correct_value": {
      "index": 89824,
      "pos": [
        16.0019,
        -8.48613,
        12.4156
      ]
    },
    "test": "Click the point with the faintest visible circle (circles drawn using the X axis value)",
    "program": "contours",
    "model": 2,
    "dataI": 3,
    "dataII": 5
  },
  {
    "click_position": [
      -14.379084967320262,
      -33.72549019607843,
      1.3071895424836555
    ],
    "nearestIndex": 56811,
    "value": 0.06252527722865399,
    "correct_value": {
      "index": 65915,
      "pos": [
        -2.58742,
        6.77254,
        4.66316
      ]
    },
    "test": "Click the point with the smallest visible circle (circles drawn using the X axis value)",
    "program": "contours",
    "model": 2,
    "dataI": 3,
    "dataII": 6
  },
  {
    "value": 1,
    "test": "How clear do you find this visualization?",
    "program": "contours",
    "model": 2,
    "dataI": 3,
    "dataII": 4
  },
  {
    "value": 0,
    "test": "How attractive do you find this visualization?",
    "program": "contours",
    "model": 2,
    "dataI": 2,
    "dataII": 3
  },
  {
    "click_position": [
      -2.3529411764705874,
      14.379084967320255,
      12.810457516339868
    ],
    "nearestIndex": 90401,
    "value": 0.568267534647283,
    "correct_value": {
      "index": 100658,
      "pos": [
        -10.5801,
        4.49368,
        20.4261
      ]
    },
    "test": "Click the point on the object with the highest Y Axis measurement",
    "program": "bumpmap",
    "model": 2,
    "dataI": 2,
    "dataII": 1
  },
  {
    "click_position": [
      -12.287581699346406,
      -29.542483660130717,
      7.581699346405232
    ],
    "nearestIndex": 75203,
    "value": 0.5547746834146373,
    "correct_value": {
      "index": 100658,
      "pos": [
        -10.5801,
        4.49368,
        20.4261
      ]
    },
    "test": "Click the point on the object with the highest X Axis measurement",
    "program": "bumpmap",
    "model": 2,
    "dataI": 3,
    "dataII": 2
  },
  {
    "click_position": [
      -8.104575163398694,
      3.3986928104575194,
      6.01307189542483
    ],
    "nearestIndex": 69252,
    "value": 0,
    "correct_value": {
      "index": 65915,
      "pos": [
        -2.58742,
        6.77254,
        4.66316
      ]
    },
    "test": "Click the point with the faintest visible circle (circles drawn using the Y axis measurement)",
    "program": "bumpmap",
    "model": 2,
    "dataI": 5,
    "dataII": 4
  },
  {
    "click_position": [
      14.379084967320255,
      -11.764705882352944,
      12.810457516339868
    ],
    "nearestIndex": 89510,
    "value": 0.917463666424416,
    "correct_value": {
      "index": 67525,
      "pos": [
        9.34653,
        3.48129,
        5.40373
      ]
    },
    "test": "Click the point with the smallest visible circle (circles drawn using the Y axis measurement)",
    "program": "bumpmap",
    "model": 2,
    "dataI": 6,
    "dataII": 3
  },
  {
    "click_position": [
      -17.516339869281044,
      -10.19607843137255,
      -3.9215686274509816
    ],
    "nearestIndex": 41966,
    "value": 0.10083782225981497,
    "correct_value": {
      "index": 65915,
      "pos": [
        -2.58742,
        6.77254,
        4.66316
      ]
    },
    "test": "Click the point with the faintest visible circle (circles drawn using the X axis value)",
    "program": "bumpmap",
    "model": 2,
    "dataI": 1,
    "dataII": 5
  },
  {
    "click_position": [
      -18.562091503267975,
      -10.19607843137255,
      -7.581699346405232
    ],
    "nearestIndex": 31915,
    "value": 0.21629557195554455,
    "correct_value": {
      "index": 89824,
      "pos": [
        16.0019,
        -8.48613,
        12.4156
      ]
    },
    "test": "Click the point with the smallest visible circle (circles drawn using the X axis value)",
    "program": "bumpmap",
    "model": 2,
    "dataI": 3,
    "dataII": 6
  },
  {
    "value": 2,
    "test": "How clear do you find this visualization?",
    "program": "bumpmap",
    "model": 2,
    "dataI": 4,
    "dataII": 1
  },
  {
    "value": 3,
    "test": "How attractive do you find this visualization?",
    "program": "bumpmap",
    "model": 2,
    "dataI": 4,
    "dataII": 3
  },
  {
    "order": "bumpmap[]=1&contours[]=1&lightspots[]=1&cymk[]=1",
    "test": "Click and drag to order these images by how you liked each visualization",
    "program": "bumpmap",
    "model": 2,
    "dataI": 2,
    "dataII": 4
  },
  {
    "value": "",
    "test": "Do you have any comments on the visualizations?",
    "program": "bumpmap",
    "model": 2,
    "dataI": 3,
    "dataII": 2
  }
]