[
  {
    "click_position": [
      -24.836601307189543,
      20.65359477124183,
      -57.77777777777778
    ],
    "nearestIndex": 52443,
    "value": 0.575529712111176,
    "correct_value": {
      "index": 10406,
      "pos": [
        0.822509,
        6.08594,
        41.3594
      ]
    },
    "test": "Click the point on the object with the highest Y Axis measurement",
    "program": "cymk",
    "model": 1,
    "dataI": 3,
    "dataII": 4
  },
  {
    "click_position": [
      -43.13725490196078,
      -1.307189542483663,
      -41.04575163398693
    ],
    "nearestIndex": 45088,
    "value": 0.5256648762433794,
    "correct_value": {
      "index": 47466,
      "pos": [
        14.4916,
        -10.4303,
        -44.3502
      ]
    },
    "test": "Click the point on the object with the highest X Axis measurement",
    "program": "cymk",
    "model": 1,
    "dataI": 3,
    "dataII": 2
  },
  {
    "click_position": [
      -6.013071895424837,
      13.33333333333333,
      -2.8758169934640496
    ],
    "nearestIndex": 23427,
    "value": 0.5018738884496051,
    "correct_value": {
      "index": 47466,
      "pos": [
        14.4916,
        -10.4303,
        -44.3502
      ]
    },
    "test": "Click the point with the faintest visible circle (circles drawn using the Y axis measurement)",
    "program": "cymk",
    "model": 1,
    "dataI": 5,
    "dataII": 2
  },
  {
    "click_position": [
      9.150326797385619,
      -18.039215686274513,
      26.928104575163392
    ],
    "nearestIndex": 13697,
    "value": 0.3261086178890765,
    "correct_value": {
      "index": 10406,
      "pos": [
        0.822509,
        6.08594,
        41.3594
      ]
    },
    "test": "Click the point with the smallest visible circle (circles drawn using the Y axis measurement)",
    "program": "cymk",
    "model": 1,
    "dataI": 6,
    "dataII": 3
  },
  {
    "click_position": [
      -26.405228758169937,
      31.111111111111104,
      -41.04575163398693
    ],
    "nearestIndex": 45587,
    "value": 0.5013332314102563,
    "correct_value": {
      "index": 10406,
      "pos": [
        0.822509,
        6.08594,
        41.3594
      ]
    },
    "test": "Click the point with the faintest visible circle (circles drawn using the X axis value)",
    "program": "cymk",
    "model": 1,
    "dataI": 2,
    "dataII": 5
  },
  {
    "click_position": [
      -26.9281045751634,
      14.901960784313733,
      -20.13071895424837
    ],
    "nearestIndex": 31226,
    "value": 0.4449735899606245,
    "correct_value": {
      "index": 47466,
      "pos": [
        14.4916,
        -10.4303,
        -44.3502
      ]
    },
    "test": "Click the point with the smallest visible circle (circles drawn using the X axis value)",
    "program": "cymk",
    "model": 1,
    "dataI": 3,
    "dataII": 6
  },
  {
    "value": 4,
    "test": "How clear do you find this visualization?",
    "program": "cymk",
    "model": 1,
    "dataI": 3,
    "dataII": 4
  },
  {
    "value": 0,
    "test": "How attractive do you find this visualization?",
    "program": "cymk",
    "model": 1,
    "dataI": 2,
    "dataII": 3
  },
  {
    "click_position": [
      -8.104575163398694,
      43.66013071895424,
      16.99346405228758
    ],
    "nearestIndex": 96784,
    "value": 0.13330106621112509,
    "correct_value": {
      "index": 65915,
      "pos": [
        -2.58742,
        6.77254,
        4.66316
      ]
    },
    "test": "Click the point on the object with the highest Y Axis measurement",
    "program": "bumpmap",
    "model": 2,
    "dataI": 4,
    "dataII": 3
  },
  {
    "click_position": [
      38.431372549019606,
      11.241830065359482,
      0.2614379084967311
    ],
    "nearestIndex": 53806,
    "value": 0.903855522237949,
    "correct_value": {
      "index": 67525,
      "pos": [
        9.34653,
        3.48129,
        5.40373
      ]
    },
    "test": "Click the point on the object with the highest X Axis measurement",
    "program": "bumpmap",
    "model": 2,
    "dataI": 2,
    "dataII": 3
  },
  {
    "click_position": [
      4.967320261437906,
      -27.45098039215686,
      9.150326797385619
    ],
    "nearestIndex": 77501,
    "value": 0.200474792975375,
    "correct_value": {
      "index": 89824,
      "pos": [
        16.0019,
        -8.48613,
        12.4156
      ]
    },
    "test": "Click the point with the faintest visible circle (circles drawn using the Y axis measurement)",
    "program": "bumpmap",
    "model": 2,
    "dataI": 5,
    "dataII": 1
  },
  {
    "click_position": [
      23.267973856209156,
      -14.379084967320262,
      9.150326797385619
    ],
    "nearestIndex": 78788,
    "value": 0.41704728283804027,
    "correct_value": {
      "index": 89824,
      "pos": [
        16.0019,
        -8.48613,
        12.4156
      ]
    },
    "test": "Click the point with the smallest visible circle (circles drawn using the Y axis measurement)",
    "program": "bumpmap",
    "model": 2,
    "dataI": 6,
    "dataII": 1
  },
  {
    "click_position": [
      1.3071895424836555,
      -12.810457516339868,
      -15.947712418300657
    ],
    "nearestIndex": 10200,
    "value": 0.1491306776900862,
    "correct_value": {
      "index": 89824,
      "pos": [
        16.0019,
        -8.48613,
        12.4156
      ]
    },
    "test": "Click the point with the faintest visible circle (circles drawn using the X axis value)",
    "program": "bumpmap",
    "model": 2,
    "dataI": 4,
    "dataII": 5
  },
  {
    "click_position": [
      11.241830065359482,
      12.287581699346406,
      27.97385620915033
    ],
    "nearestIndex": 106313,
    "value": 0.5653818535386557,
    "correct_value": {
      "index": 100658,
      "pos": [
        -10.5801,
        4.49368,
        20.4261
      ]
    },
    "test": "Click the point with the smallest visible circle (circles drawn using the X axis value)",
    "program": "bumpmap",
    "model": 2,
    "dataI": 1,
    "dataII": 6
  },
  {
    "value": 4,
    "test": "How clear do you find this visualization?",
    "program": "bumpmap",
    "model": 2,
    "dataI": 4,
    "dataII": 1
  },
  {
    "value": 3,
    "test": "How attractive do you find this visualization?",
    "program": "bumpmap",
    "model": 2,
    "dataI": 2,
    "dataII": 1
  },
  {
    "click_position": [
      1.3071895424836555,
      -11.241830065359474,
      66.66666666666667
    ],
    "nearestIndex": 4838,
    "value": 0.5117065533345234,
    "correct_value": {
      "index": 5211,
      "pos": [
        -1.18896,
        -1.91686,
        65.3553
      ]
    },
    "test": "Click the point on the object with the highest Y Axis measurement",
    "program": "contours",
    "model": 1,
    "dataI": 4,
    "dataII": 1
  },
  {
    "click_position": [
      8.104575163398694,
      6.535947712418308,
      66.66666666666667
    ],
    "nearestIndex": 5011,
    "value": 0.1886424294780159,
    "correct_value": {
      "index": 33196,
      "pos": [
        11.6538,
        19.2382,
        -23.2045
      ]
    },
    "test": "Click the point on the object with the highest X Axis measurement",
    "program": "contours",
    "model": 1,
    "dataI": 3,
    "dataII": 1
  },
  {
    "click_position": [
      7.581699346405232,
      8.104575163398694,
      58.30065359477124
    ],
    "nearestIndex": 6906,
    "value": 0.5526131461584776,
    "correct_value": {
      "index": 5211,
      "pos": [
        -1.18896,
        -1.91686,
        65.3553
      ]
    },
    "test": "Click the point with the faintest visible circle (circles drawn using the Y axis measurement)",
    "program": "contours",
    "model": 1,
    "dataI": 5,
    "dataII": 4
  },
  {
    "click_position": [
      -14.379084967320262,
      -5.490196078431375,
      11.241830065359482
    ],
    "nearestIndex": 18459,
    "value": 0.4989849172909072,
    "correct_value": {
      "index": 47466,
      "pos": [
        14.4916,
        -10.4303,
        -44.3502
      ]
    },
    "test": "Click the point with the smallest visible circle (circles drawn using the Y axis measurement)",
    "program": "contours",
    "model": 1,
    "dataI": 6,
    "dataII": 2
  },
  {
    "click_position": [
      6.535947712418308,
      9.150326797385619,
      34.248366013071895
    ],
    "nearestIndex": 12183,
    "value": 0.37165853733411824,
    "correct_value": {
      "index": 5211,
      "pos": [
        -1.18896,
        -1.91686,
        65.3553
      ]
    },
    "test": "Click the point with the faintest visible circle (circles drawn using the X axis value)",
    "program": "contours",
    "model": 1,
    "dataI": 3,
    "dataII": 5
  },
  {
    "click_position": [
      19.607843137254907,
      13.856209150326793,
      -35.81699346405229
    ],
    "nearestIndex": 41478,
    "value": 0.571522280183503,
    "correct_value": {
      "index": 47466,
      "pos": [
        14.4916,
        -10.4303,
        -44.3502
      ]
    },
    "test": "Click the point with the smallest visible circle (circles drawn using the X axis value)",
    "program": "contours",
    "model": 1,
    "dataI": 4,
    "dataII": 6
  },
  {
    "value": 4,
    "test": "How clear do you find this visualization?",
    "program": "contours",
    "model": 1,
    "dataI": 4,
    "dataII": 2
  },
  {
    "value": 4,
    "test": "How attractive do you find this visualization?",
    "program": "contours",
    "model": 1,
    "dataI": 1,
    "dataII": 4
  },
  {
    "click_position": [
      16.47058823529412,
      4.967320261437906,
      66.66666666666667
    ],
    "nearestIndex": 4964,
    "value": 0.4744240760776923,
    "correct_value": {
      "index": 5211,
      "pos": [
        -1.18896,
        -1.91686,
        65.3553
      ]
    },
    "test": "Click the point on the object with the highest Y Axis measurement",
    "program": "luminescent texture",
    "model": 1,
    "dataI": 4,
    "dataII": 2
  },
  {
    "click_position": [
      0.7843137254901933,
      -9.150326797385619,
      66.66666666666667
    ],
    "nearestIndex": 4843,
    "value": 0.12277113607554334,
    "correct_value": {
      "index": 33196,
      "pos": [
        11.6538,
        19.2382,
        -23.2045
      ]
    },
    "test": "Click the point on the object with the highest X Axis measurement",
    "program": "luminescent texture",
    "model": 1,
    "dataI": 4,
    "dataII": 1
  },
  {
    "click_position": [
      21.176470588235293,
      1.8300653594771177,
      38.431372549019606
    ],
    "nearestIndex": 11020,
    "value": 0.12812980623536277,
    "correct_value": {
      "index": 33196,
      "pos": [
        11.6538,
        19.2382,
        -23.2045
      ]
    },
    "test": "Click the point with the faintest visible circle (circles drawn using the Y axis measurement)",
    "program": "luminescent texture",
    "model": 1,
    "dataI": 5,
    "dataII": 1
  },
  {
    "click_position": [
      16.99346405228758,
      -16.99346405228758,
      44.18300653594772
    ],
    "nearestIndex": 9499,
    "value": 0.3771836028470279,
    "correct_value": {
      "index": 10406,
      "pos": [
        0.822509,
        6.08594,
        41.3594
      ]
    },
    "test": "Click the point with the smallest visible circle (circles drawn using the Y axis measurement)",
    "program": "luminescent texture",
    "model": 1,
    "dataI": 6,
    "dataII": 3
  },
  {
    "click_position": [
      1.3071895424836555,
      -14.379084967320262,
      52.54901960784314
    ],
    "nearestIndex": 7950,
    "value": 0.13320113982646709,
    "correct_value": {
      "index": 33196,
      "pos": [
        11.6538,
        19.2382,
        -23.2045
      ]
    },
    "test": "Click the point with the faintest visible circle (circles drawn using the X axis value)",
    "program": "luminescent texture",
    "model": 1,
    "dataI": 3,
    "dataII": 5
  },
  {
    "click_position": [
      8.627450980392156,
      9.150326797385619,
      22.222222222222218
    ],
    "nearestIndex": 15222,
    "value": 0.4328862509435125,
    "correct_value": {
      "index": 47466,
      "pos": [
        14.4916,
        -10.4303,
        -44.3502
      ]
    },
    "test": "Click the point with the smallest visible circle (circles drawn using the X axis value)",
    "program": "luminescent texture",
    "model": 1,
    "dataI": 3,
    "dataII": 6
  },
  {
    "value": 4,
    "test": "How clear do you find this visualization?",
    "program": "luminescent texture",
    "model": 1,
    "dataI": 3,
    "dataII": 2
  },
  {
    "value": 3,
    "test": "How attractive do you find this visualization?",
    "program": "luminescent texture",
    "model": 1,
    "dataI": 2,
    "dataII": 4
  },
  {
    "order": "lightspots[]=1&bumpmap[]=1&contours[]=1&cymk[]=1",
    "test": "Click and drag to order these images by how you liked each visualization",
    "program": "luminescent texture",
    "model": 1,
    "dataI": 2,
    "dataII": 3
  },
  {
    "value": "",
    "test": "Do you have any comments on the visualizations?",
    "program": "luminescent texture",
    "model": 1,
    "dataI": 3,
    "dataII": 1
  }
]