[
  {
    "click_position": [
      -0.7843137254901933,
      4.967320261437906,
      37.38562091503268
    ],
    "nearestIndex": 11397,
    "value": 0.9046733101496944,
    "correct_value": {
      "index": 10406,
      "pos": [
        0.822509,
        6.08594,
        41.3594
      ]
    },
    "test": "Click the point on the object with the highest Y Axis measurement",
    "program": "cymk",
    "model": 1,
    "dataI": 3,
    "dataII": 2
  },
  {
    "click_position": [
      15.947712418300657,
      -8.104575163398694,
      -44.18300653594771
    ],
    "nearestIndex": 47586,
    "value": 0.6549768120547925,
    "correct_value": {
      "index": 47466,
      "pos": [
        14.4916,
        -10.4303,
        -44.3502
      ]
    },
    "test": "Click the point on the object with the highest X Axis measurement",
    "program": "cymk",
    "model": 1,
    "dataI": 3,
    "dataII": 2
  },
  {
    "click_position": [
      3.3986928104575194,
      14.901960784313733,
      -32.15686274509804
    ],
    "nearestIndex": 39160,
    "value": 0.4788552526226067,
    "correct_value": {
      "index": 10406,
      "pos": [
        0.822509,
        6.08594,
        41.3594
      ]
    },
    "test": "Click the point with the faintest visible circle (circles drawn using the Y axis measurement)",
    "program": "cymk",
    "model": 1,
    "dataI": 5,
    "dataII": 3
  },
  {
    "click_position": [
      9.150326797385619,
      -20.65359477124183,
      1.8300653594771177
    ],
    "nearestIndex": 21313,
    "value": 0.15445942910638574,
    "correct_value": {
      "index": 5211,
      "pos": [
        -1.18896,
        -1.91686,
        65.3553
      ]
    },
    "test": "Click the point with the smallest visible circle (circles drawn using the Y axis measurement)",
    "program": "cymk",
    "model": 1,
    "dataI": 6,
    "dataII": 4
  },
  {
    "click_position": [
      26.40522875816993,
      12.287581699346406,
      -33.20261437908497
    ],
    "nearestIndex": 40139,
    "value": 0.3673058157899996,
    "correct_value": {
      "index": 10406,
      "pos": [
        0.822509,
        6.08594,
        41.3594
      ]
    },
    "test": "Click the point with the faintest visible circle (circles drawn using the X axis value)",
    "program": "cymk",
    "model": 1,
    "dataI": 4,
    "dataII": 5
  },
  {
    "click_position": [
      -19.6078431372549,
      -10.718954248366012,
      -37.38562091503268
    ],
    "nearestIndex": 41924,
    "value": 0.042980921636744135,
    "correct_value": {
      "index": 5211,
      "pos": [
        -1.18896,
        -1.91686,
        65.3553
      ]
    },
    "test": "Click the point with the smallest visible circle (circles drawn using the X axis value)",
    "program": "cymk",
    "model": 1,
    "dataI": 1,
    "dataII": 6
  },
  {
    "value": 4,
    "test": "How clear do you find this visualization?",
    "program": "cymk",
    "model": 1,
    "dataI": 2,
    "dataII": 4
  },
  {
    "value": 0,
    "test": "How attractive do you find this visualization?",
    "program": "cymk",
    "model": 1,
    "dataI": 1,
    "dataII": 3
  },
  {
    "click_position": [
      11.241830065359482,
      19.084967320261445,
      -22.745098039215687
    ],
    "nearestIndex": 33196,
    "value": 0.5771969172948497,
    "correct_value": {
      "index": 33196,
      "pos": [
        11.6538,
        19.2382,
        -23.2045
      ]
    },
    "test": "Click the point on the object with the highest Y Axis measurement",
    "program": "luminescent texture",
    "model": 1,
    "dataI": 1,
    "dataII": 3
  },
  {
    "click_position": [
      0.2614379084967311,
      -8.627450980392156,
      66.66666666666667
    ],
    "nearestIndex": 4843,
    "value": 0.5333389437414993,
    "correct_value": {
      "index": 47466,
      "pos": [
        14.4916,
        -10.4303,
        -44.3502
      ]
    },
    "test": "Click the point on the object with the highest X Axis measurement",
    "program": "luminescent texture",
    "model": 1,
    "dataI": 4,
    "dataII": 2
  },
  {
    "click_position": [
      -24.31372549019608,
      30.58823529411764,
      -34.248366013071895
    ],
    "nearestIndex": 40564,
    "value": 0.10845199289991414,
    "correct_value": {
      "index": 5211,
      "pos": [
        -1.18896,
        -1.91686,
        65.3553
      ]
    },
    "test": "Click the point with the faintest visible circle (circles drawn using the Y axis measurement)",
    "program": "luminescent texture",
    "model": 1,
    "dataI": 5,
    "dataII": 4
  },
  {
    "click_position": [
      -7.058823529411762,
      -7.581699346405232,
      -24.836601307189543
    ],
    "nearestIndex": 33602,
    "value": 0.4313844564819098,
    "correct_value": {
      "index": 10406,
      "pos": [
        0.822509,
        6.08594,
        41.3594
      ]
    },
    "test": "Click the point with the smallest visible circle (circles drawn using the Y axis measurement)",
    "program": "luminescent texture",
    "model": 1,
    "dataI": 6,
    "dataII": 3
  },
  {
    "click_position": [
      21.699346405228756,
      12.287581699346406,
      -8.627450980392156
    ],
    "nearestIndex": 25764,
    "value": 0.5058731856057135,
    "correct_value": {
      "index": 47466,
      "pos": [
        14.4916,
        -10.4303,
        -44.3502
      ]
    },
    "test": "Click the point with the faintest visible circle (circles drawn using the X axis value)",
    "program": "luminescent texture",
    "model": 1,
    "dataI": 4,
    "dataII": 5
  },
  {
    "click_position": [
      -6.5359477124183,
      12.287581699346406,
      -46.79738562091503
    ],
    "nearestIndex": 48541,
    "value": 0.39651518964382687,
    "correct_value": {
      "index": 10406,
      "pos": [
        0.822509,
        6.08594,
        41.3594
      ]
    },
    "test": "Click the point with the smallest visible circle (circles drawn using the X axis value)",
    "program": "luminescent texture",
    "model": 1,
    "dataI": 2,
    "dataII": 6
  },
  {
    "value": 0,
    "test": "How clear do you find this visualization?",
    "program": "luminescent texture",
    "model": 1,
    "dataI": 2,
    "dataII": 1
  },
  {
    "value": 1,
    "test": "How attractive do you find this visualization?",
    "program": "luminescent texture",
    "model": 1,
    "dataI": 4,
    "dataII": 3
  },
  {
    "click_position": [
      12.287581699346406,
      19.084967320261445,
      -24.836601307189543
    ],
    "nearestIndex": 34140,
    "value": 0.5690291585435026,
    "correct_value": {
      "index": 33196,
      "pos": [
        11.6538,
        19.2382,
        -23.2045
      ]
    },
    "test": "Click the point on the object with the highest Y Axis measurement",
    "program": "bumpmap",
    "model": 1,
    "dataI": 1,
    "dataII": 4
  },
  {
    "click_position": [
      -5.490196078431375,
      -20.65359477124183,
      10.71895424836602
    ],
    "nearestIndex": 18230,
    "value": 0.4606645772813163,
    "correct_value": {
      "index": 10406,
      "pos": [
        0.822509,
        6.08594,
        41.3594
      ]
    },
    "test": "Click the point on the object with the highest X Axis measurement",
    "program": "bumpmap",
    "model": 1,
    "dataI": 2,
    "dataII": 3
  },
  {
    "click_position": [
      8.104575163398694,
      7.05882352941177,
      66.66666666666667
    ],
    "nearestIndex": 5011,
    "value": 0.5083786409300015,
    "correct_value": {
      "index": 47466,
      "pos": [
        14.4916,
        -10.4303,
        -44.3502
      ]
    },
    "test": "Click the point with the faintest visible circle (circles drawn using the Y axis measurement)",
    "program": "bumpmap",
    "model": 1,
    "dataI": 5,
    "dataII": 2
  },
  {
    "click_position": [
      -27.973856209150323,
      -3.3986928104575194,
      -27.45098039215686
    ],
    "nearestIndex": 35714,
    "value": 0.19161037180982135,
    "correct_value": {
      "index": 33196,
      "pos": [
        11.6538,
        19.2382,
        -23.2045
      ]
    },
    "test": "Click the point with the smallest visible circle (circles drawn using the Y axis measurement)",
    "program": "bumpmap",
    "model": 1,
    "dataI": 6,
    "dataII": 1
  },
  {
    "click_position": [
      14.901960784313733,
      6.535947712418308,
      43.13725490196078
    ],
    "nearestIndex": 10074,
    "value": 0.380905373818866,
    "correct_value": {
      "index": 10406,
      "pos": [
        0.822509,
        6.08594,
        41.3594
      ]
    },
    "test": "Click the point with the faintest visible circle (circles drawn using the X axis value)",
    "program": "bumpmap",
    "model": 1,
    "dataI": 2,
    "dataII": 5
  },
  {
    "click_position": [
      3.9215686274509816,
      -20.65359477124183,
      3.3986928104575194
    ],
    "nearestIndex": 20823,
    "value": 0.5662508091299492,
    "correct_value": {
      "index": 10406,
      "pos": [
        0.822509,
        6.08594,
        41.3594
      ]
    },
    "test": "Click the point with the smallest visible circle (circles drawn using the X axis value)",
    "program": "bumpmap",
    "model": 1,
    "dataI": 4,
    "dataII": 6
  },
  {
    "value": 1,
    "test": "How clear do you find this visualization?",
    "program": "bumpmap",
    "model": 1,
    "dataI": 3,
    "dataII": 2
  },
  {
    "value": 2,
    "test": "How attractive do you find this visualization?",
    "program": "bumpmap",
    "model": 1,
    "dataI": 3,
    "dataII": 2
  },
  {
    "click_position": [
      -14.379084967320262,
      -34.248366013071895,
      1.8300653594771177
    ],
    "nearestIndex": 59326,
    "value": 0.6096666327010951,
    "correct_value": {
      "index": 100658,
      "pos": [
        -10.5801,
        4.49368,
        20.4261
      ]
    },
    "test": "Click the point on the object with the highest Y Axis measurement",
    "program": "contours",
    "model": 2,
    "dataI": 2,
    "dataII": 4
  },
  {
    "click_position": [
      -20.13071895424837,
      -19.6078431372549,
      -15.947712418300657
    ],
    "nearestIndex": 9217,
    "value": 0.5729383874165306,
    "correct_value": {
      "index": 89824,
      "pos": [
        16.0019,
        -8.48613,
        12.4156
      ]
    },
    "test": "Click the point on the object with the highest X Axis measurement",
    "program": "contours",
    "model": 2,
    "dataI": 2,
    "dataII": 1
  },
  {
    "click_position": [
      -21.699346405228756,
      -23.79084967320261,
      3.9215686274509816
    ],
    "nearestIndex": 63260,
    "value": 0.2697075431663867,
    "correct_value": {
      "index": 89824,
      "pos": [
        16.0019,
        -8.48613,
        12.4156
      ]
    },
    "test": "Click the point with the faintest visible circle (circles drawn using the Y axis measurement)",
    "program": "contours",
    "model": 2,
    "dataI": 5,
    "dataII": 1
  },
  {
    "click_position": [
      18.039215686274506,
      -8.627450980392156,
      3.3986928104575194
    ],
    "nearestIndex": 61620,
    "value": 0.9143027306014252,
    "correct_value": {
      "index": 67525,
      "pos": [
        9.34653,
        3.48129,
        5.40373
      ]
    },
    "test": "Click the point with the smallest visible circle (circles drawn using the Y axis measurement)",
    "program": "contours",
    "model": 2,
    "dataI": 6,
    "dataII": 3
  },
  {
    "click_position": [
      11.241830065359482,
      11.764705882352944,
      3.3986928104575194
    ],
    "nearestIndex": 62397,
    "value": 0.5533863658800241,
    "correct_value": {
      "index": 65915,
      "pos": [
        -2.58742,
        6.77254,
        4.66316
      ]
    },
    "test": "Click the point with the faintest visible circle (circles drawn using the X axis value)",
    "program": "contours",
    "model": 2,
    "dataI": 2,
    "dataII": 5
  },
  {
    "click_position": [
      -11.241830065359474,
      11.764705882352944,
      3.9215686274509816
    ],
    "nearestIndex": 64223,
    "value": 0.6220822016856284,
    "correct_value": {
      "index": 65915,
      "pos": [
        -2.58742,
        6.77254,
        4.66316
      ]
    },
    "test": "Click the point with the smallest visible circle (circles drawn using the X axis value)",
    "program": "contours",
    "model": 2,
    "dataI": 2,
    "dataII": 6
  },
  {
    "value": 3,
    "test": "How clear do you find this visualization?",
    "program": "contours",
    "model": 2,
    "dataI": 3,
    "dataII": 2
  },
  {
    "value": 2,
    "test": "How attractive do you find this visualization?",
    "program": "contours",
    "model": 2,
    "dataI": 2,
    "dataII": 4
  },
  {
    "order": "contours[]=1&cymk[]=1&bumpmap[]=1&lightspots[]=1",
    "test": "Click and drag to order these images by how you liked each visualization",
    "program": "contours",
    "model": 1,
    "dataI": 1,
    "dataII": 4
  },
  {
    "value": "With the vertebrae maybe rescale the colours. It was had to see any differentiation between values until the contours were added. \n\nThe bump map and light 'something or other' map are extremely sore on the eyes to look at. Also confusing as there's a bit of the 'blue-black/white-gold dress' phenomena when yours eyes continually alternate between seeing the bumps as facing inwards or outwards, making it harder to focus. I think for these the subtlety in the bump gradients is hard to figure out. My eyes seemed to interpret it as areas which were more well-lit rather than less bumpy.\n\nIf the contour plots didn't have the numbers overlaying during the visualisation they'd be awesome :)",
    "test": "Do you have any comments on the visualizations?",
    "program": "contours",
    "model": 1,
    "dataI": 3,
    "dataII": 2
  }
]