[
  {
    "click_position": [
      -1.307189542483663,
      0.2614379084967311,
      60.91503267973857
    ],
    "nearestIndex": 6165,
    "value": 0.12360888219260233,
    "correct_value": {
      "index": 33196,
      "pos": [
        11.6538,
        19.2382,
        -23.2045
      ]
    },
    "test": "Click the point on the object with the highest Y Axis measurement",
    "program": "bumpmap",
    "model": 1,
    "dataI": 1,
    "dataII": 2
  },
  {
    "click_position": [
      12.287581699346406,
      14.901960784313733,
      -15.424836601307186
    ],
    "nearestIndex": 29132,
    "value": 0.25935196238423963,
    "correct_value": {
      "index": 33196,
      "pos": [
        11.6538,
        19.2382,
        -23.2045
      ]
    },
    "test": "Click the point on the object with the highest X Axis measurement",
    "program": "bumpmap",
    "model": 1,
    "dataI": 4,
    "dataII": 1
  },
  {
    "click_position": [
      -9.150326797385619,
      -0.7843137254901933,
      -46.27450980392157
    ],
    "nearestIndex": 48433,
    "value": 0.5297196410845351,
    "correct_value": {
      "index": 47466,
      "pos": [
        14.4916,
        -10.4303,
        -44.3502
      ]
    },
    "test": "Click the point with the faintest visible circle (circles drawn using the Y axis measurement)",
    "program": "bumpmap",
    "model": 1,
    "dataI": 5,
    "dataII": 2
  },
  {
    "click_position": [
      23.267973856209156,
      -2.8758169934640496,
      12.287581699346406
    ],
    "nearestIndex": 18475,
    "value": 0.4851613283181696,
    "correct_value": {
      "index": 47466,
      "pos": [
        14.4916,
        -10.4303,
        -44.3502
      ]
    },
    "test": "Click the point with the smallest visible circle (circles drawn using the Y axis measurement)",
    "program": "bumpmap",
    "model": 1,
    "dataI": 6,
    "dataII": 2
  },
  {
    "click_position": [
      22.222222222222218,
      -7.581699346405232,
      37.38562091503268
    ],
    "nearestIndex": 10948,
    "value": 0.26086956521739124,
    "correct_value": {
      "index": 41,
      "pos": [
        7.94641,
        -18.891,
        90.8616
      ]
    },
    "test": "Click the point with the faintest visible circle (circles drawn using the X axis value)",
    "program": "bumpmap",
    "model": 1,
    "dataI": 3,
    "dataII": 5
  },
  {
    "click_position": [
      -17.516339869281044,
      -7.581699346405232,
      -28.496732026143793
    ],
    "nearestIndex": 36572,
    "value": 0,
    "correct_value": {
      "index": 0,
      "pos": [
        13.2538,
        -20.3888,
        90.8646
      ]
    },
    "test": "Click the point with the smallest visible circle (circles drawn using the X axis value)",
    "program": "bumpmap",
    "model": 1,
    "dataI": 4,
    "dataII": 6
  },
  {
    "value": 2,
    "test": "How clear do you find this visualization?",
    "program": "bumpmap",
    "model": 1,
    "dataI": 3,
    "dataII": 1
  },
  {
    "value": 2,
    "test": "How attractive do you find this visualization?",
    "program": "bumpmap",
    "model": 1,
    "dataI": 4,
    "dataII": 1
  },
  {
    "click_position": [
      -0.7843137254901933,
      4.967320261437906,
      38.431372549019606
    ],
    "nearestIndex": 11058,
    "value": 0.929020356688946,
    "correct_value": {
      "index": 10406,
      "pos": [
        0.822509,
        6.08594,
        41.3594
      ]
    },
    "test": "Click the point on the object with the highest Y Axis measurement",
    "program": "luminescent texture",
    "model": 1,
    "dataI": 3,
    "dataII": 2
  },
  {
    "click_position": [
      10.196078431372543,
      19.607843137254907,
      -23.26797385620915
    ],
    "nearestIndex": 33294,
    "value": 0.5629882217518467,
    "correct_value": {
      "index": 5211,
      "pos": [
        -1.18896,
        -1.91686,
        65.3553
      ]
    },
    "test": "Click the point on the object with the highest X Axis measurement",
    "program": "luminescent texture",
    "model": 1,
    "dataI": 2,
    "dataII": 4
  },
  {
    "click_position": [
      -9.150326797385619,
      -0.2614379084967311,
      -45.751633986928105
    ],
    "nearestIndex": 47886,
    "value": 0.5371779154802725,
    "correct_value": {
      "index": 47466,
      "pos": [
        14.4916,
        -10.4303,
        -44.3502
      ]
    },
    "test": "Click the point with the faintest visible circle (circles drawn using the Y axis measurement)",
    "program": "luminescent texture",
    "model": 1,
    "dataI": 5,
    "dataII": 2
  },
  {
    "click_position": [
      8.104575163398694,
      7.05882352941177,
      66.66666666666667
    ],
    "nearestIndex": 5011,
    "value": 0.1886424294780159,
    "correct_value": {
      "index": 33196,
      "pos": [
        11.6538,
        19.2382,
        -23.2045
      ]
    },
    "test": "Click the point with the smallest visible circle (circles drawn using the Y axis measurement)",
    "program": "luminescent texture",
    "model": 1,
    "dataI": 6,
    "dataII": 1
  },
  {
    "click_position": [
      -18.039215686274513,
      -7.581699346405232,
      -29.019607843137255
    ],
    "nearestIndex": 36526,
    "value": 0.717391304347826,
    "correct_value": {
      "index": 41,
      "pos": [
        7.94641,
        -18.891,
        90.8616
      ]
    },
    "test": "Click the point with the faintest visible circle (circles drawn using the X axis value)",
    "program": "luminescent texture",
    "model": 1,
    "dataI": 1,
    "dataII": 5
  },
  {
    "click_position": [
      22.222222222222218,
      -7.581699346405232,
      38.431372549019606
    ],
    "nearestIndex": 10948,
    "value": 0.7142857142857143,
    "correct_value": {
      "index": 0,
      "pos": [
        13.2538,
        -20.3888,
        90.8646
      ]
    },
    "test": "Click the point with the smallest visible circle (circles drawn using the X axis value)",
    "program": "luminescent texture",
    "model": 1,
    "dataI": 3,
    "dataII": 6
  },
  {
    "value": 3,
    "test": "How clear do you find this visualization?",
    "program": "luminescent texture",
    "model": 1,
    "dataI": 4,
    "dataII": 3
  },
  {
    "value": 3,
    "test": "How attractive do you find this visualization?",
    "program": "luminescent texture",
    "model": 1,
    "dataI": 1,
    "dataII": 3
  },
  {
    "click_position": [
      4.444444444444444,
      13.33333333333333,
      1.3071895424836555
    ],
    "nearestIndex": 58641,
    "value": 0.9537400956134782,
    "correct_value": {
      "index": 67525,
      "pos": [
        9.34653,
        3.48129,
        5.40373
      ]
    },
    "test": "Click the point on the object with the highest Y Axis measurement",
    "program": "contours",
    "model": 2,
    "dataI": 3,
    "dataII": 2
  },
  {
    "click_position": [
      0.7843137254901933,
      15.424836601307195,
      13.33333333333333
    ],
    "nearestIndex": 91976,
    "value": 0.4474372839582805,
    "correct_value": {
      "index": 65915,
      "pos": [
        -2.58742,
        6.77254,
        4.66316
      ]
    },
    "test": "Click the point on the object with the highest X Axis measurement",
    "program": "contours",
    "model": 2,
    "dataI": 1,
    "dataII": 4
  },
  {
    "click_position": [
      -0.7843137254901933,
      26.928104575163392,
      18.039215686274506
    ],
    "nearestIndex": 98526,
    "value": 0.2524973939271861,
    "correct_value": {
      "index": 65915,
      "pos": [
        -2.58742,
        6.77254,
        4.66316
      ]
    },
    "test": "Click the point with the faintest visible circle (circles drawn using the Y axis measurement)",
    "program": "contours",
    "model": 2,
    "dataI": 5,
    "dataII": 4
  },
  {
    "click_position": [
      -3.9215686274509816,
      -32.67973856209151,
      -20.65359477124183
    ],
    "nearestIndex": 108,
    "value": 0.5968544400549233,
    "correct_value": {
      "index": 100658,
      "pos": [
        -10.5801,
        4.49368,
        20.4261
      ]
    },
    "test": "Click the point with the smallest visible circle (circles drawn using the Y axis measurement)",
    "program": "contours",
    "model": 2,
    "dataI": 6,
    "dataII": 2
  },
  {
    "click_position": [
      14.901960784313733,
      12.810457516339868,
      12.287581699346406
    ],
    "nearestIndex": 88919,
    "value": 0.8260869565217389,
    "correct_value": {
      "index": 17,
      "pos": [
        3.72327,
        -32.8425,
        -19.8823
      ]
    },
    "test": "Click the point with the faintest visible circle (circles drawn using the X axis value)",
    "program": "contours",
    "model": 2,
    "dataI": 4,
    "dataII": 5
  },
  {
    "click_position": [
      -3.9215686274509816,
      -32.15686274509804,
      -20.65359477124183
    ],
    "nearestIndex": 108,
    "value": 0.8571428571428571,
    "correct_value": {
      "index": 0,
      "pos": [
        -2.61301,
        -33.5378,
        -19.9079
      ]
    },
    "test": "Click the point with the smallest visible circle (circles drawn using the X axis value)",
    "program": "contours",
    "model": 2,
    "dataI": 3,
    "dataII": 6
  },
  {
    "value": 2,
    "test": "How clear do you find this visualization?",
    "program": "contours",
    "model": 2,
    "dataI": 3,
    "dataII": 4
  },
  {
    "value": 1,
    "test": "How attractive do you find this visualization?",
    "program": "contours",
    "model": 2,
    "dataI": 1,
    "dataII": 3
  },
  {
    "click_position": [
      -1.307189542483663,
      -3.3986928104575194,
      66.14379084967321
    ],
    "nearestIndex": 4890,
    "value": 0.5374059664020312,
    "correct_value": {
      "index": 47466,
      "pos": [
        14.4916,
        -10.4303,
        -44.3502
      ]
    },
    "test": "Click the point on the object with the highest Y Axis measurement",
    "program": "cymk",
    "model": 1,
    "dataI": 2,
    "dataII": 3
  },
  {
    "click_position": [
      12.287581699346406,
      19.084967320261445,
      -22.222222222222225
    ],
    "nearestIndex": 32235,
    "value": 0.5106945050134671,
    "correct_value": {
      "index": 33196,
      "pos": [
        11.6538,
        19.2382,
        -23.2045
      ]
    },
    "test": "Click the point on the object with the highest X Axis measurement",
    "program": "cymk",
    "model": 1,
    "dataI": 2,
    "dataII": 1
  },
  {
    "click_position": [
      22.222222222222218,
      -8.627450980392156,
      40.00000000000001
    ],
    "nearestIndex": 10606,
    "value": 0.5539668200330823,
    "correct_value": {
      "index": 5211,
      "pos": [
        -1.18896,
        -1.91686,
        65.3553
      ]
    },
    "test": "Click the point with the faintest visible circle (circles drawn using the Y axis measurement)",
    "program": "cymk",
    "model": 1,
    "dataI": 5,
    "dataII": 4
  },
  {
    "click_position": [
      -0.2614379084967311,
      9.150326797385619,
      14.379084967320255
    ],
    "nearestIndex": 17688,
    "value": 0.28638168465805103,
    "correct_value": {
      "index": 5211,
      "pos": [
        -1.18896,
        -1.91686,
        65.3553
      ]
    },
    "test": "Click the point with the smallest visible circle (circles drawn using the Y axis measurement)",
    "program": "cymk",
    "model": 1,
    "dataI": 6,
    "dataII": 4
  },
  {
    "click_position": [
      -20.13071895424837,
      2.352941176470595,
      -10.718954248366012
    ],
    "nearestIndex": 26927,
    "value": 0.5652173913043478,
    "correct_value": {
      "index": 41,
      "pos": [
        7.94641,
        -18.891,
        90.8616
      ]
    },
    "test": "Click the point with the faintest visible circle (circles drawn using the X axis value)",
    "program": "cymk",
    "model": 1,
    "dataI": 1,
    "dataII": 5
  },
  {
    "click_position": [
      22.222222222222218,
      -8.627450980392156,
      38.95424836601307
    ],
    "nearestIndex": 10606,
    "value": 0.7142857142857143,
    "correct_value": {
      "index": 0,
      "pos": [
        13.2538,
        -20.3888,
        90.8646
      ]
    },
    "test": "Click the point with the smallest visible circle (circles drawn using the X axis value)",
    "program": "cymk",
    "model": 1,
    "dataI": 2,
    "dataII": 6
  },
  {
    "value": 0,
    "test": "How clear do you find this visualization?",
    "program": "cymk",
    "model": 1,
    "dataI": 4,
    "dataII": 3
  },
  {
    "value": 2,
    "test": "How attractive do you find this visualization?",
    "program": "cymk",
    "model": 1,
    "dataI": 4,
    "dataII": 1
  },
  {
    "order": "lightspots[]=1&bumpmap[]=1&contours[]=1&cymk[]=1",
    "test": "Click and drag to order these images by how you liked each visualization",
    "program": "cymk",
    "model": 2,
    "dataI": 3,
    "dataII": 1
  },
  {
    "value": "The Yellow/Magenta/Red one is nearly impossible for me to distinguish, I can't separate the colours out as two distinct sets of information, my mind is telling me I'm looking at a single spectrum.\n\nThe bumpmap one is hard too, I feel like my brain is telling me that the texture should be constant for the whole object, it's almost like battling against an optical illusion to see what's really there.\n\nThe lightspots one was easiest. I don't have too much to say about the contours, it's ok to find regions but when you take a random point between contours it's hard to say where it would be on the X axis of the graph.\n\nHave you considered a sinusoidal wave pattern/texture over the object that increases in frequency relative to one of the axes? Straight line as the 0 etc.\n\nAnyway, it's cool. I like innovative ways of displaying information.\n",
    "test": "Do you have any comments on the visualizations?",
    "program": "cymk",
    "model": 2,
    "dataI": 3,
    "dataII": 1
  }
]